{
  "project_info": {
    "project_number": "63594455718",
    "firebase_url": "https://bbrave-app.firebaseio.com",
    "project_id": "bbrave-app",
    "storage_bucket": "bbrave-app.appspot.com"
  },
  "client": [
    {
      "client_info": {
        "mobilesdk_app_id": "1:63594455718:android:ed429c38ebc403fd520a67",
        "android_client_info": {
          "package_name": "mt.org.bbrave.bbrave_app"
        }
      },
      "oauth_client": [
        {
          "client_id": "63594455718-oqq0lac7eeooj642q082sa8hbeilamqr.apps.googleusercontent.com",
          "client_type": 3
        }
      ],
      "api_key": [
        {
          "current_key": "AIzaSyAsWvPDXoCz79ILiZjTWM0GiDbJbMTB96s"
        }
      ],
      "services": {
        "appinvite_service": {
          "other_platform_oauth_client": [
            {
              "client_id": "63594455718-oqq0lac7eeooj642q082sa8hbeilamqr.apps.googleusercontent.com",
              "client_type": 3
            }
          ]
        }
      }
    }
  ],
  "configuration_version": "1"
}