 [
  {
   "name": "ADHD (Malta)",
   "body": "\nAttention Deficit Disorder and Attention Deficit Hyperactivity Disorder\n\nPO Box 02, St. Julian’s, STJ 1001\nPhone: +356 2123 3749",
    "phone": "+356 2123 3749",
   "link": "Click here",
   "link_url": "https://www.adhdmalta.org.mt/"
  },
  {
   "name": "Aditus",
   "body": "\nAttention Deficit Disorder and Attention Deficit Hyperactivity Disorder\n\nRhea Builing 1A, Triq is- Santissima Trinita, Hamrun, MRS 2280\nPhone: +356 2010 6295",
    "phone": "+356 2010 6295",
   "link": "Click here",
   "link_url": "http://aditus.org.mt/"
  },
  {
   "name": "Amputees4amputees",
   "body": "\nBullying in schools\nService Manager, Education Psycho-Social Services\n\nTriq Fra Gaetano Pace Forno, Il-Ħamrun, HMR 1100\nPhone: +356 2123 3698\n             +356 2122 5285",
    "phone": "+356 2123 3698",
    "other_phones": "+356 2123 3698,+356 2122 5285",
   "link": "Click here",
   "link_url": "https://education.gov.mt/en/education/student-services/Pages/Psycho-Social_Services/Anti-Bullying-Service.aspx"
  },
  {
   "name": "Anti-Bullying Service (Ministry for Education)",
   "body": "\nBullying in Schools\nService Manager, Education Psycho-Social Services\n\nTriq Fra Gaetano Pace Forno, Il-Ħamrun, HMR 1100\nPhone: +356 2123 3698\n             +356 2122 5285",
    "phone": "+356 2123 3698",
    "other_phones": "+356 2123 3698,+356 2122 5285",
   "link": "Click here",
   "link_url": "https://education.gov.mt/en/education/student-services/Pages/Psycho-Social_Services/Anti-Bullying-Service.aspx"
  },
  {
   "name": "Caritas Malta",
   "body": "\nNew Hope Project – Outreach Community Service – Family Services – Male Shelter – San Blas Therapeutic Community – Et Iris – Females’ Therapeutic Community – Prison Inmates Programme (PIP) – Semi-residential / Re-Entry / Aftercare – Evening Programme – Agency Services – Counselling and Social Work – HelpAge – Prevention Education Programme – Employee Assistance Programme (EAP) – Community Outreach – Second Hand Items Project (SHIP) – Usury Foundation – Caritas Malta Epilepsy Association Support Group – Caritas Youths\n\n5, Triq l-Iljun, Floriana, FRN 1416\nPhone: +356 2590 6600",
    "phone": "+356 2590 6600",
   "link": "Click here",
   "link_url": "https://caritasmalta.org/"
  },
  {
   "name": "Commissioner for Children",
   "body": "\nChildren’s Rights\n\nThe Office of the Commissioner for Children, 16/18, Tower Promenade, St. Lucia, SLC 1019\nPhone: +356 2148 5180",
    "phone": "+356 2148 5180",
   "link": "Click here",
   "link_url": "https://tfal.org.mt/en/Pages/default.aspx"
  },
  {
   "name": "Drachma, Gay Rights Movement",
   "body": "\nSexual Orientation Support\nPhone: +356 7925 3875",
    "phone": "+356 7925 3875",
   "link": "Click here",
   "link_url": "http://www.maltagayrights.org/drachma.php"
  },
  {
   "name": "ECDAM (Early Childhood Development Association of Malta)",
   "body": "\nEarly Childhood Development\n\n‘Joel,’ Dawret il-Gudja, GDJ 9035\nPhone: +356 7963 9603\n             +356 7989 1728",
    "phone": "+356 7963 9603",
    "other_phones": "+356 7963 9603,+356 7989 1728",
   "link": "Click here",
   "link_url": "http://www.maltagayrights.org/drachma.php"
  },
  {
   "name": "Friendship Cards (Relationships Are Forever Foundation)",
   "body": "\nConflict Resolution\n\n47/3, Main Street, St. Julian’s, STJ 1018\nPhone: +356 7979 1671",
    "phone": "+356 7979 1671",
   "link": "Click here",
   "link_url": "http://www.friendshipcards.org/about/foundation/"
  },
  {
   "name": "Kellimni.com",
   "body": "\nOnline chat – Support\n\n10, Triq il-Ward, St. Venera, SVR 1640\nPhone: +356 2124 4123",
    "phone": "+356 2124 4123",
   "link": "Click here",
   "link_url": "http://kellimni.com/"
  },
  {
   "name": "Malta Association for the Counselling Profession (MACP)",
   "body": "\nCounselling\n\n127, The Professional Centre, Sliema Road, Gzira, GZR 1633\nPhone: +356 2124 4123",
    "phone": "+356 2124 4123",
   "link": "Click here",
   "link_url": "http://www.macpmalta.org/"
  },
  {
   "name": "MCAST",
   "body": "\nTherapeutic Services for Students and Staff\n\nMain Campus, Corradino Hill, Paola, PLA 9032\nPhone: +356 2398 7129\n             +356 2398 7133",
    "phone": "+356 2398 7129",
    "other_phones": "+356 2398 7129,+356 2398 7133",
   "link": "Click here",
   "link_url": "http://www.mcast.edu.mt/"
  },
  {
   "name": "SOS Malta",
   "body": "\nSocial Integration – Kellimni.com\n\n10, Triq il-Ward, St. Venera, SVR 1640\nPhone: +356 2124 4123",
    "phone": "+356 2124 4123",
   "link": "Click here",
   "link_url": "http://www.sosmalta.org/"
  },
  {
   "name": "Women’s Rights Foundation",
   "body": "\nTraining Against Violence on Women\nPhone: +356 7970 8615",
    "phone": "+356 7970 8615",
   "link": "Click here",
   "link_url": "https://www.wrf.org.mt/"
  },
  {
   "name": "Żgħażagħ Azzjoni Kattolika (ŻAK)",
   "body": "\nCatholic Youth Action Group\n\n211, Brared Street, Birkirkara BKR 1256\nPhone: +356 2144 1041",
    "phone": "+356 2144 1041",
   "link": "Click here",
   "link_url": "https://www.zakmalta.org/"
  }
 ]
